id,item_num,status_code_id,status_code,reason_code,product_id,from_location_id,to_location_id,scan_area_id,function_code,beat_code,status_date,cust_acc_num,ppi,docket_num,note,item_status_data_json,cancel_flag,created_at,modified_at,created_by,modified_by,item_status_id,spdn_userid,mail_type,ref_id
393747219,RC126293202SG,3,PD,NULL,1,48,48,NULL,PON_NEW_DEL_STA,,00:00.0,,NULL,,,"[{""Key"":""Sys Ref No"",""Value"":""SYSHJAKC420213330606078275540""},{""Key"":""Po Postal Cd"",""Value"":""0""}]",0,02/02/2021 09:01:02,02/02/2021 09:01:02,AKC4,AKC4,373411185,NULL,NULL,
393747035,RC126293202SG,2,RP,NULL,1,48,48,NULL,PON_NEW_DEL_STA,,00:00.0,,NULL,,,"[{""Key"":""Sys Ref No"",""Value"":""SYSHJAKC420213363457540114882""},{""Key"":""Po Postal Cd"",""Value"":""0""}]",0,02/02/2021 09:00:42,02/02/2021 09:00:42,AKC4,AKC4,373410933,NULL,NULL,
393752128,RC126293202SG,11,HR,NULL,1,6,48,NULL,INT_DIS,,08:30.5,,NULL,,,,0,02/02/2021 08:08:31,02/02/2021 08:08:31,logeswari,logeswari,373382861,NULL,NULL,
393810152,RC126293202SG,46,RI,NULL,1,5,5,NULL,INT_REC,,45:05.0,,NULL,,,"[{""Key"":""Source File Name"",""Value"":""DB-R000015210202004629.xml""}]",0,02/02/2021 08:01:34,02/02/2021 08:01:34,Conveyor,,373375696,NULL,NULL,
393752211,RC126293202SG,12,HB,NULL,1,39,6,NULL,INT_DIS,,59:57.8,,NULL,,,,0,02/02/2021 07:59:58,02/02/2021 07:59:58,fadhilahad,fadhilahad,373374441,NULL,NULL,
393748624,RC126293202SG,6,PL,NULL,1,113,113,NULL,PON_NEW_DEL_STA,,39:00.0,,NULL,,,"[{""Key"":""Sys Ref No"",""Value"":""RAF19831120210290197000001""},{""Key"":""Po Postal Cd"",""Value"":""0""}]",0,29/01/2021 16:39:32,29/01/2021 16:39:32,8311,8311,372917046,NULL,NULL,
393742543,RC126293202SG,1,PO,P01,1,113,113,NULL,PON_NEW_ITM,,44:00.0,,NULL,,,"[{""Key"":""Sys Ref No"",""Value"":""RAF18831120210290165000""},{""Key"":""New Docket Ind"",""Value"":""N""},{""Key"":""Coll Date"",""Value"":""20210129""},{""Key"":""Start Coll Time"",""Value"":""1544""},{""Key"":""Cust Ind"",""Value"":""PO""},{""Key"":""Po Postal Cd"",""Value"":""0""},{""Key"":""Insured Amount"",""Value"":""000.00""},{""Key"":""weight In Kg "",""Value"":null},{""Key"":""Postage"",""Value"":null}]",0,29/01/2021 15:45:09,29/01/2021 15:45:09,8311,8311,372914766,NULL,,
